Imputing Like a Data Scientist
…
Plotting clusters based on tornado sataset

na.tornadosn <- tornados[,sapply(na.tornados,is.numeric)]
na.omit(na.tornadosn)

# A tibble: 41,517 × 21
      om    yr    mo    dy   stf   mag   inj   fat    loss  slat   slon  elat
   <dbl> <dbl> <dbl> <dbl> <dbl> <dbl> <dbl> <dbl>   <dbl> <dbl>  <dbl> <dbl>
 1   192  1950    10     1    40     1     0     0   50000  36.7 -103.   36.9
 2   193  1950    10     9    37     3     3     0  500000  34.2  -78.6   0  
 3   195  1950    11    20    21     2     0     0  500000  37.4  -87.2   0  
 4   196  1950    11    20    21     1     0     0  500000  38.2  -84.5   0  
 5   197  1950    11    20    28     1     3     0   50000  32.4  -89.1   0  
 6   194  1950    11     4    42     3     1     0  500000  40.2  -76.1  40.4
 7   198  1950    12     2    17     2     3     1   50000  39.0  -90.0  39.1
 8   199  1950    12     2    17     3    25     2 5000000  38.8  -89.7  38.9
 9   200  1950    12     2     5     3     0     0      50  36.1  -91.8  36.2
10   201  1950    12     2    17     1     0     0   50000  38.2  -89.8  38.2
# ℹ 41,507 more rows
# ℹ 9 more variables: elon <dbl>, len <dbl>, wid <dbl>, ns <dbl>, sn <dbl>,
#   f1 <dbl>, f2 <dbl>, f3 <dbl>, f4 <dbl>

na.tornadosn <- na.tornadosn[1:1000, ]
na.tornadosn

# A tibble: 1,000 × 21
      om    yr    mo    dy   stf   mag   inj   fat    loss  slat   slon  elat
   <dbl> <dbl> <dbl> <dbl> <dbl> <dbl> <dbl> <dbl>   <dbl> <dbl>  <dbl> <dbl>
 1   192  1950    10     1    40     1     0     0   50000  36.7 -103.   36.9
 2   193  1950    10     9    37     3     3     0  500000  34.2  -78.6   0  
 3   195  1950    11    20    21     2     0     0  500000  37.4  -87.2   0  
 4   196  1950    11    20    21     1     0     0  500000  38.2  -84.5   0  
 5   197  1950    11    20    28     1     3     0   50000  32.4  -89.1   0  
 6   194  1950    11     4    42     3     1     0  500000  40.2  -76.1  40.4
 7   198  1950    12     2    17     2     3     1   50000  39.0  -90.0  39.1
 8   199  1950    12     2    17     3    25     2 5000000  38.8  -89.7  38.9
 9   200  1950    12     2     5     3     0     0      50  36.1  -91.8  36.2
10   201  1950    12     2    17     1     0     0   50000  38.2  -89.8  38.2
# ℹ 990 more rows
# ℹ 9 more variables: elon <dbl>, len <dbl>, wid <dbl>, ns <dbl>, sn <dbl>,
#   f1 <dbl>, f2 <dbl>, f3 <dbl>, f4 <dbl>
…
